<?xml version="1.0" encoding="utf-8"?>
<!-- Generator: Adobe Illustrator 18.1.1, SVG Export Plug-In . SVG Version: 6.00 Build 0)  -->
<svg version="1.1" id="Layer_1" xmlns="http://www.w3.org/2000/svg" xmlns:xlink="http://www.w3.org/1999/xlink" x="0px" y="0px"
	 width="255.5px" height="380.5px" viewBox="0 0 255.5 380.5" enable-background="new 0 0 255.5 380.5" xml:space="preserve">
<g>
	<path fill="#FFFFFF" d="M140.6,344.4c-43.9,0-79.7-35.8-79.7-79.7S96.7,185,140.6,185s79.7,35.8,79.7,79.7S184.6,344.4,140.6,344.4
		z"/>
	<g>
		<path fill="#184066" d="M140.6,187.5c42.6,0,77.2,34.6,77.2,77.2c0,42.6-34.6,77.2-77.2,77.2s-77.2-34.6-77.2-77.2
			C63.4,222.1,98,187.5,140.6,187.5 M140.6,182.5c-45.3,0-82.2,36.9-82.2,82.2c0,45.3,36.9,82.2,82.2,82.2s82.2-36.9,82.2-82.2
			C222.8,219.4,186,182.5,140.6,182.5L140.6,182.5z"/>
	</g>
</g>
<g>
	<text transform="matrix(1 0 0 1 138.4279 299.4318)" fill="#FFFFFF" font-family="'Circular-Black'" font-size="16.952">i</text>
</g>
<path fill="none" stroke="#88BF72" stroke-width="4" stroke-miterlimit="10" d="M247.6,303.6c-15.9,43.7-57.8,74.9-107,74.9
	c-40.3,0-75.6-20.9-95.9-52.5"/>
<circle fill="#E4EBEE" stroke="#88BF72" stroke-width="4" stroke-miterlimit="10" cx="247.7" cy="302.4" r="6"/>
<circle fill="#E4EBEE" stroke="#88BF72" stroke-width="4" stroke-miterlimit="10" cx="70.2" cy="354.6" r="6"/>
<path fill="none" stroke="#88BF72" stroke-width="4" stroke-linejoin="round" stroke-miterlimit="10" d="M49.2,232
	c13.4-37.5,49.3-64.3,91.4-64.3c53.6,0,97,43.4,97,97s-43.4,97-97,97"/>
<circle fill="#E4EBEE" stroke="#88BF72" stroke-width="4" stroke-linejoin="round" stroke-miterlimit="10" cx="141.2" cy="361.6" r="6"/>
<path fill="none" stroke="#184066" stroke-width="2" stroke-linejoin="round" stroke-miterlimit="10" d="M115.4,205.5"/>
<path fill="none" stroke="#EE4C2E" stroke-width="2" stroke-linejoin="round" stroke-miterlimit="10" d="M279.7,135.7
	c5-14.3,19.2-23.3,36.8-21.1"/>
<path fill="none" stroke="#EE4C2E" stroke-width="2" stroke-linejoin="round" stroke-miterlimit="10" d="M271.8,121.9
	c4.9-10.7,26.8-26.4,48.5-19.7"/>
<path fill="none" stroke="#ED4C2F" stroke-width="3" stroke-linejoin="round" stroke-miterlimit="10" d="M215.8,169.6
	c-28.3,8.5-52.8-12.1-55.8-41.4l0-0.1L156,121l2.5-12.5"/>
<g>
	<polyline fill="none" stroke="#88BF72" stroke-width="3" stroke-linejoin="round" stroke-miterlimit="10" points="199.9,113.2 
		146.7,87.3 123.9,58.2 	"/>
	<polyline fill="none" stroke="#88BF72" stroke-width="3" stroke-linejoin="round" stroke-miterlimit="10" points="197.1,120.4 
		140.3,104.3 103.8,110.8 	"/>
	
		<ellipse transform="matrix(0.9342 0.3568 -0.3568 0.9342 37.6855 -35.113)" fill="none" stroke="#184066" stroke-width="6" stroke-linejoin="round" stroke-miterlimit="10" cx="114" cy="84.6" rx="14.1" ry="28.1"/>
</g>
<path fill="none" stroke="#ED4C2F" stroke-width="3" stroke-linejoin="round" stroke-miterlimit="10" d="M177.8,108.4l2.4,11.3
	l-4.6,8l0,0.1c2.5,22.8,17.3,33.5,32.1,31.4"/>
<line fill="none" stroke="#88BF72" stroke-width="3" stroke-linejoin="round" stroke-miterlimit="10" x1="124.3" y1="89" x2="29.6" y2="51.9"/>
<polyline fill="none" stroke="#88BF72" stroke-width="3" stroke-linejoin="round" stroke-miterlimit="10" points="54.5,32.6 
	83,50.9 96.7,78 "/>
<polyline fill="none" stroke="#88BF72" stroke-width="3" stroke-linejoin="round" stroke-miterlimit="10" points="27.1,82.4 
	43.8,87 85.5,74.1 "/>
<path fill="none" stroke="#ED4C2F" stroke-width="3" stroke-linejoin="round" stroke-miterlimit="10" d="M211.7,171"/>
<path fill="none" stroke="#ED4C2F" stroke-width="3" stroke-linejoin="round" stroke-miterlimit="10" d="M204.9,160.9"/>
<path fill="#ED4C2F" stroke="#184066" stroke-width="3" stroke-linejoin="round" stroke-miterlimit="10" d="M307.2,167.8l-41.2-52.4
	l-60.4,47.5l41.2,52.4C270.5,245.5,331,198,307.2,167.8"/>
<line fill="none" stroke="#FFFFFF" stroke-width="3" stroke-linejoin="round" stroke-miterlimit="10" x1="234.5" y1="198.5" x2="253.4" y2="161.1"/>
<circle fill="#FFFFFF" stroke="#184066" stroke-width="3" stroke-linejoin="round" stroke-miterlimit="10" cx="234.1" cy="198.5" r="8.1"/>
<line fill="none" stroke="#FFFFFF" stroke-width="3" stroke-linejoin="round" stroke-miterlimit="10" x1="244.7" y1="150.5" x2="277.6" y2="192.3"/>
<line fill="none" stroke="#ED4C2F" stroke-width="3" stroke-linejoin="round" stroke-miterlimit="10" x1="197.2" y1="103.9" x2="189.5" y2="101.9"/>
<circle fill="#E4EBEE" stroke="#184066" stroke-width="3" stroke-linejoin="round" stroke-miterlimit="10" cx="214.6" cy="110.4" r="18.4"/>
<path fill="#E4EBEE" stroke="#184066" stroke-width="3" stroke-linejoin="round" stroke-miterlimit="10" d="M201.3,106.5
	c-3.5,0.5-6.5,3.1-7.4,6.8c-1.2,4.9,1.7,9.8,6.6,11c2,0.5,4,0.3,5.8-0.5"/>
<circle fill="#184066" cx="208.5" cy="103.1" r="3"/>
<path fill="none" stroke="#ED4C2F" stroke-width="3" stroke-linejoin="round" stroke-miterlimit="10" d="M224.7,103.7
	c0,0,1.4-7.6,2.3-12.4c1.6-8.7-8.7-10.8-10.3-3c-1.1,5.4-0.8,3.7-0.8,3.7"/>
<path fill="none" stroke="#184066" stroke-width="3" stroke-linejoin="round" stroke-miterlimit="10" d="M225,106.6
	c-4.5-0.9-10.8-7.1-8.4-14.3c-7.2-3.8-6.9-9.7-4.6-16.9"/>
<circle fill="#ED4C2F" stroke="#184066" stroke-width="3" stroke-linejoin="round" stroke-miterlimit="10" cx="222.4" cy="108.7" r="5.9"/>
<circle fill="#E4EBEE" stroke="#88BF72" stroke-width="3" stroke-linejoin="round" stroke-miterlimit="10" cx="30.4" cy="52.1" r="6"/>
<ellipse transform="matrix(-0.7863 0.6179 -0.6179 -0.7863 507.8945 102.9425)" fill="#E4EBEE" stroke="#184066" stroke-width="3" stroke-linejoin="round" stroke-miterlimit="10" cx="236.1" cy="139.3" rx="38.6" ry="14.1"/>
<line fill="none" stroke="#184066" stroke-width="3" stroke-linejoin="round" stroke-miterlimit="10" x1="225.2" y1="125.3" x2="236.2" y2="139.3"/>
<polygon fill="#184066" points="215.6,93.1 214.4,93.2 213.7,92.1 214.5,91.6 "/>
<path fill="#184066" d="M222.5,92.2c-3.6-1.4-7.2-2.1-11.9-1.2C215.9,92.4,222.5,92.2,222.5,92.2z"/>
<circle fill="#E4EBEE" stroke="#88BF72" stroke-width="3" stroke-linejoin="round" stroke-miterlimit="10" cx="55" cy="32.4" r="6"/>
<circle fill="#E4EBEE" stroke="#88BF72" stroke-width="3" stroke-linejoin="round" stroke-miterlimit="10" cx="27.5" cy="82.6" r="6"/>
<path fill="none" d="M73.8,0c4.6,0,181.7,57.2,181.7,57.2v174l-81.1-61.1l-121-47.6L0,103.7"/>
</svg>
